﻿opcode,pneumonic,category
15,aesd,accel
16,aese,accel
17,aesimc,accel
18,aesmc,accel
68,crc32b,accel
69,crc32cb,accel
70,crc32ch,accel
71,crc32cw,accel
72,crc32cx,accel
73,crc32h,accel
74,crc32w,accel
75,crc32x,accel
365,sha1c,accel
366,sha1h,accel
367,sha1m,accel
368,sha1p,accel
369,sha1su0,accel
370,sha1su1,accel
371,sha256h,accel
372,sha256h2,accel
373,sha256su0,accel
374,sha256su1,accel
375,shadd,accel
4,abs,alu_scalar
5,adc,alu_scalar
6,adcs,alu_scalar
7,add,alu_scalar
8,addhn,alu_scalar
9,addhn2,alu_scalar
10,addp,alu_scalar
11,adds,alu_scalar
12,addv,alu_scalar
13,adr,alu_scalar
14,adrp,alu_scalar
19,and,alu_scalar
20,ands,alu_scalar
26,bfm,alu_scalar
27,bic,alu_scalar
28,bics,alu_scalar
29,bif,alu_scalar
30,bit,alu_scalar
54,ccmn,alu_scalar
55,ccmp,alu_scalar
57,cls,alu_scalar
58,clz,alu_scalar
87,eon,alu_scalar
88,eor,alu_scalar
90,ext,alu_scalar
91,extr,alu_scalar
92,fabd,alu_scalar
93,fabs,alu_scalar
95,facgt,alu_scalar
96,fadd,alu_scalar
98,fccmp,alu_scalar
125,fdiv,alu_scalar
126,fmadd,alu_scalar
127,fmax,alu_scalar
128,fmaxnm,alu_scalar
129,fmaxnmp,alu_scalar
130,fmaxnmv,alu_scalar
131,fmaxp,alu_scalar
132,fmaxv,alu_scalar
133,fmin,alu_scalar
134,fminnm,alu_scalar
135,fminnmp,alu_scalar
136,fminnmv,alu_scalar
137,fminp,alu_scalar
138,fminv,alu_scalar
139,fmla,alu_scalar
140,fmlal,alu_scalar
141,fmlal2,alu_scalar
142,fmls,alu_scalar
143,fmlsl,alu_scalar
144,fmlsl2,alu_scalar
145,fmov,alu_scalar
146,fmsub,alu_scalar
147,fmul,alu_scalar
148,fmulx,alu_scalar
149,fneg,alu_scalar
150,fnmadd,alu_scalar
151,fnmsub,alu_scalar
152,fnmul,alu_scalar
153,frecpe,alu_scalar
154,frecps,alu_scalar
155,frecpx,alu_scalar
156,frinta,alu_scalar
157,frinti,alu_scalar
158,frintm,alu_scalar
159,frintn,alu_scalar
160,frintp,alu_scalar
161,frintx,alu_scalar
162,frintz,alu_scalar
163,frsqrte,alu_scalar
164,frsqrts,alu_scalar
165,fsqrt,alu_scalar
166,fsub,alu_scalar
307,lslv,alu_scalar
308,lsrv,alu_scalar
309,madd,alu_scalar
310,mla,alu_scalar
311,mls,alu_scalar
318,msub,alu_scalar
319,mul,alu_scalar
321,neg,alu_scalar
323,not,alu_scalar
324,orn,alu_scalar
325,orr,alu_scalar
339,rorv,alu_scalar
357,sbc,alu_scalar
358,sbcs,alu_scalar
359,sbfm,alu_scalar
360,scvtf,alu_scalar
361,sdiv,alu_scalar
376,shl,alu_scalar
377,shll,alu_scalar
378,shll2,alu_scalar
379,shrn,alu_scalar
380,shrn2,alu_scalar
381,shsub,alu_scalar
382,sli,alu_scalar
383,smaddl,alu_scalar
384,smax,alu_scalar
385,smaxp,alu_scalar
386,smaxv,alu_scalar
387,smc,alu_scalar
388,smin,alu_scalar
389,sminp,alu_scalar
390,sminv,alu_scalar
391,smlal,alu_scalar
392,smlal2,alu_scalar
393,smlsl,alu_scalar
394,smlsl2,alu_scalar
395,smov,alu_scalar
396,smsubl,alu_scalar
397,smulh,alu_scalar
398,smull,alu_scalar
399,smull2,alu_scalar
426,srhadd,alu_scalar
427,sri,alu_scalar
428,srshl,alu_scalar
429,srshr,alu_scalar
430,srsra,alu_scalar
431,sshl,alu_scalar
432,sshll,alu_scalar
433,sshll2,alu_scalar
466,sub,alu_scalar
467,subhn,alu_scalar
468,subhn2,alu_scalar
469,subs,alu_scalar
505,ubfm,alu_scalar
507,udiv,alu_scalar
511,umaddl,alu_scalar
523,umsubl,alu_scalar
524,umulh,alu_scalar
525,umull,alu_scalar
537,urecpe,alu_scalar
35,bsl,alu_simd
59,cmeq,alu_simd
60,cmge,alu_simd
61,cmgt,alu_simd
62,cmhi,alu_simd
63,cmhs,alu_simd
64,cmle,alu_simd
65,cmlt,alu_simd
66,cmtst,alu_simd
94,facge,alu_simd
97,faddp,alu_simd
99,fccmpe,alu_simd
100,fcmeq,alu_simd
101,fcmge,alu_simd
102,fcmgt,alu_simd
103,fcmle,alu_simd
104,fcmlt,alu_simd
105,fcmp,alu_simd
106,fcmpe,alu_simd
326,pmul,alu_simd
327,pmull,alu_simd
328,pmull2,alu_simd
331,raddhn,alu_simd
332,raddhn2,alu_simd
340,rshrn,alu_simd
341,rshrn2,alu_simd
342,rsubhn,alu_simd
343,rsubhn2,alu_simd
344,saba,alu_simd
345,sabal,alu_simd
346,sabal2,alu_simd
347,sabd,alu_simd
348,sabdl,alu_simd
349,sabdl2,alu_simd
350,sadalp,alu_simd
351,saddl,alu_simd
352,saddl2,alu_simd
353,saddlp,alu_simd
354,saddlv,alu_simd
355,saddw,alu_simd
356,saddw2,alu_simd
362,sdot,alu_simd
400,sqabs,alu_simd
401,sqadd,alu_simd
402,sqdmlal,alu_simd
403,sqdmlal2,alu_simd
404,sqdmlsl,alu_simd
405,sqdmlsl2,alu_simd
406,sqdmulh,alu_simd
407,sqdmull,alu_simd
408,sqdmull2,alu_simd
409,sqneg,alu_simd
410,sqrdmlah,alu_simd
411,sqrdmulh,alu_simd
412,sqrshl,alu_simd
413,sqrshrn,alu_simd
414,sqrshrn2,alu_simd
415,sqrshrun,alu_simd
416,sqrshrun2,alu_simd
417,sqshl,alu_simd
418,sqshlu,alu_simd
419,sqshrun,alu_simd
420,sqshrun2,alu_simd
421,sqsub,alu_simd
422,sqxtn,alu_simd
423,sqxtn2,alu_simd
424,sqxtun,alu_simd
425,sqxtun2,alu_simd
434,sshr,alu_simd
435,ssra,alu_simd
436,ssubl,alu_simd
437,ssubl2,alu_simd
438,ssubw,alu_simd
439,ssubw2,alu_simd
470,suqadd,alu_simd
486,tbl,alu_simd
487,tbnz,alu_simd
488,tbx,alu_simd
489,tbz,alu_simd
492,uaba,alu_simd
493,uabal,alu_simd
494,uabal2,alu_simd
495,uabd,alu_simd
496,uabdl,alu_simd
497,uabdl2,alu_simd
498,uadalp,alu_simd
499,uaddl,alu_simd
500,uaddl2,alu_simd
501,uaddlp,alu_simd
502,uaddlv,alu_simd
503,uaddw,alu_simd
504,uaddw2,alu_simd
508,udot,alu_simd
509,uhadd,alu_simd
510,uhsub,alu_simd
512,umax,alu_simd
513,umaxp,alu_simd
514,umaxv,alu_simd
515,umin,alu_simd
516,uminp,alu_simd
517,uminv,alu_simd
518,umlal,alu_simd
519,umlal2,alu_simd
520,umlsl,alu_simd
521,umlsl2,alu_simd
526,umull2,alu_simd
527,uqadd,alu_simd
528,uqrshl,alu_simd
529,uqrshrn,alu_simd
530,uqrshrn2,alu_simd
531,uqshl,alu_simd
532,uqshrn,alu_simd
533,uqshrn2,alu_simd
534,uqsub,alu_simd
538,urhadd,alu_simd
539,urshl,alu_simd
540,urshr,alu_simd
541,ursra,alu_simd
542,ushl,alu_simd
543,ushll,alu_simd
544,ushll2,alu_simd
545,ushr,alu_simd
546,usqadd,alu_simd
547,usra,alu_simd
548,usubl,alu_simd
549,usubl2,alu_simd
550,usubw,alu_simd
551,usubw2,alu_simd
36,cas,atomic_scalar
37,casa,atomic_scalar
38,casab,atomic_scalar
39,casah,atomic_scalar
40,casal,atomic_scalar
41,casalb,atomic_scalar
42,casalh,atomic_scalar
43,casb,atomic_scalar
44,cash,atomic_scalar
45,casl,atomic_scalar
46,caslb,atomic_scalar
47,caslh,atomic_scalar
48,casp,atomic_scalar
49,caspa,atomic_scalar
50,caspal,atomic_scalar
51,caspl,atomic_scalar
76,csel,atomic_scalar
77,csinc,atomic_scalar
78,csinv,atomic_scalar
79,csneg,atomic_scalar
179,ldadd,atomic_scalar
180,ldadda,atomic_scalar
181,ldaddab,atomic_scalar
182,ldaddah,atomic_scalar
183,ldaddal,atomic_scalar
184,ldaddalb,atomic_scalar
185,ldaddalh,atomic_scalar
186,ldaddb,atomic_scalar
187,ldaddh,atomic_scalar
188,ldaddl,atomic_scalar
189,ldaddlb,atomic_scalar
190,ldaddlh,atomic_scalar
198,ldclr,atomic_scalar
199,ldclra,atomic_scalar
200,ldclrab,atomic_scalar
201,ldclrah,atomic_scalar
202,ldclral,atomic_scalar
203,ldclralb,atomic_scalar
204,ldclralh,atomic_scalar
205,ldclrb,atomic_scalar
206,ldclrh,atomic_scalar
207,ldclrl,atomic_scalar
208,ldclrlb,atomic_scalar
209,ldclrlh,atomic_scalar
210,ldeor,atomic_scalar
211,ldeora,atomic_scalar
212,ldeorab,atomic_scalar
213,ldeorah,atomic_scalar
214,ldeoral,atomic_scalar
215,ldeoralb,atomic_scalar
216,ldeoralh,atomic_scalar
217,ldeorb,atomic_scalar
218,ldeorh,atomic_scalar
219,ldeorl,atomic_scalar
220,ldeorlb,atomic_scalar
221,ldeorlh,atomic_scalar
243,ldsmax,atomic_scalar
244,ldsmaxa,atomic_scalar
245,ldsmaxab,atomic_scalar
246,ldsmaxah,atomic_scalar
247,ldsmaxal,atomic_scalar
248,ldsmaxalb,atomic_scalar
249,ldsmaxalh,atomic_scalar
250,ldsmaxb,atomic_scalar
251,ldsmaxh,atomic_scalar
252,ldsmaxl,atomic_scalar
253,ldsmaxlb,atomic_scalar
254,ldsmaxlh,atomic_scalar
255,ldsmin,atomic_scalar
256,ldsmina,atomic_scalar
257,ldsminab,atomic_scalar
258,ldsminah,atomic_scalar
259,ldsminal,atomic_scalar
260,ldsminalb,atomic_scalar
261,ldsminalh,atomic_scalar
262,ldsminb,atomic_scalar
263,ldsminh,atomic_scalar
264,ldsminl,atomic_scalar
265,ldsminlb,atomic_scalar
266,ldsminlh,atomic_scalar
273,ldumax,atomic_scalar
274,ldumaxa,atomic_scalar
275,ldumaxab,atomic_scalar
276,ldumaxah,atomic_scalar
277,ldumaxal,atomic_scalar
278,ldumaxalb,atomic_scalar
279,ldumaxalh,atomic_scalar
280,ldumaxb,atomic_scalar
281,ldumaxh,atomic_scalar
282,ldumaxl,atomic_scalar
283,ldumaxlb,atomic_scalar
284,ldumaxlh,atomic_scalar
285,ldumin,atomic_scalar
286,ldumina,atomic_scalar
287,lduminab,atomic_scalar
288,lduminah,atomic_scalar
289,lduminal,atomic_scalar
290,lduminalb,atomic_scalar
291,lduminalh,atomic_scalar
292,lduminb,atomic_scalar
293,lduminh,atomic_scalar
294,lduminl,atomic_scalar
295,lduminlb,atomic_scalar
296,lduminlh,atomic_scalar
472,swp,atomic_swap
473,swpa,atomic_swap
474,swpab,atomic_swap
475,swpah,atomic_swap
476,swpal,atomic_swap
477,swpalb,atomic_swap
478,swpalh,atomic_swap
479,swpb,atomic_swap
480,swph,atomic_swap
481,swpl,atomic_swap
482,swplb,atomic_swap
483,swplh,atomic_swap
83,dmb,barrier
85,dsb,barrier
170,isb,barrier
31,bl,call
32,blr,call
89,eret,call
168,hvc,call
334,ret,call
107,fcsel,cond_mov
108,fcvt,convert_scalar
109,fcvtas,convert_scalar
110,fcvtau,convert_scalar
111,fcvtl,convert_scalar
112,fcvtl2,convert_scalar
113,fcvtms,convert_scalar
114,fcvtmu,convert_scalar
115,fcvtn,convert_scalar
116,fcvtn2,convert_scalar
117,fcvtns,convert_scalar
118,fcvtnu,convert_scalar
119,fcvtps,convert_scalar
120,fcvtpu,convert_scalar
121,fcvtxn,convert_scalar
122,fcvtxn2,convert_scalar
123,fcvtzs,convert_scalar
124,fcvtzu,convert_scalar
333,rbit,convert_scalar
335,rev,convert_scalar
336,rev16,convert_scalar
337,rev32,convert_scalar
338,rev64,convert_scalar
506,ucvtf,convert_scalar
557,xtn,convert_scalar
558,xtn2,convert_scalar
86,dup,convert_simd
490,trn1,convert_simd
491,trn2,convert_simd
535,uqxtn,convert_simd
536,uqxtn2,convert_simd
552,uzp1,convert_simd
553,uzp2,convert_simd
560,zip1,convert_simd
561,zip2,convert_simd
22,autia1716,cpu_state
23,autib1716,cpu_state
34,brk,cpu_state
67,cnt,cpu_state
80,dcps1,cpu_state
81,dcps2,cpu_state
82,dcps3,cpu_state
84,drps,cpu_state
167,hlt,cpu_state
169,ins,cpu_state
316,mrs,cpu_state
317,msr,cpu_state
363,sev,cpu_state
364,sevl,cpu_state
484,sys,cpu_state
485,sysl,cpu_state
556,xpaclri,cpu_state
559,yield,cpu_state
56,clrex,exclusive
303,ldxp,exclusive
304,ldxr,exclusive
305,ldxrb,exclusive
306,ldxrh,exclusive
447,stlxp,exclusive
448,stlxr,exclusive
449,stlxrb,exclusive
450,stlxrh,exclusive
462,stxp,exclusive
463,stxr,exclusive
464,stxrb,exclusive
465,stxrh,exclusive
471,svc,interrupt
24,b,jump
25,bcond,jump
33,br,jump
52,cbnz,jump
53,cbz,jump
191,ldar,mem_barrier
192,ldarb,mem_barrier
193,ldarh,mem_barrier
194,ldaxp,mem_barrier
195,ldaxr,mem_barrier
196,ldaxrb,mem_barrier
197,ldaxrh,mem_barrier
231,ldset,mem_barrier
232,ldseta,mem_barrier
233,ldsetab,mem_barrier
234,ldsetah,mem_barrier
235,ldsetal,mem_barrier
236,ldsetalb,mem_barrier
237,ldsetalh,mem_barrier
238,ldsetb,mem_barrier
239,ldseth,mem_barrier
240,ldsetl,mem_barrier
241,ldsetlb,mem_barrier
242,ldsetlh,mem_barrier
445,stlrb,mem_barrier
446,stlrh,mem_barrier
171,ld1,mem_scalar
172,ld1r,mem_scalar
173,ld2,mem_scalar
174,ld2r,mem_scalar
175,ld3,mem_scalar
176,ld3r,mem_scalar
177,ld4,mem_scalar
178,ld4r,mem_scalar
223,ldp,mem_scalar
224,ldpsw,mem_scalar
225,ldr,mem_scalar
226,ldrb,mem_scalar
227,ldrh,mem_scalar
228,ldrsb,mem_scalar
229,ldrsh,mem_scalar
230,ldrsw,mem_scalar
267,ldtr,mem_scalar
268,ldtrb,mem_scalar
269,ldtrh,mem_scalar
270,ldtrsb,mem_scalar
271,ldtrsh,mem_scalar
272,ldtrsw,mem_scalar
297,ldur,mem_scalar
298,ldurb,mem_scalar
299,ldurh,mem_scalar
300,ldursb,mem_scalar
301,ldursh,mem_scalar
302,ldursw,mem_scalar
452,stp,mem_scalar
453,str,mem_scalar
454,strb,mem_scalar
455,strh,mem_scalar
456,sttr,mem_scalar
457,sttrb,mem_scalar
458,sttrh,mem_scalar
459,stur,mem_scalar
460,sturb,mem_scalar
461,sturh,mem_scalar
440,st1,mem_simd
441,st2,mem_simd
442,st3,mem_simd
443,st4,mem_simd
444,stlr,mem_simd
21,asrv,mov_scalar
312,movi,mov_scalar
313,movk,mov_scalar
314,movn,mov_scalar
315,movz,mov_scalar
320,mvni,mov_simd
522,umov,mov_simd
1,undecoded,node_base
2,contd,node_base
3,label,node_base
222,ldnp,nontemporal_mem_scalar
451,stnp,nontemporal_mem_scalar
322,nop,nop
329,prfm,prefetch
330,prfum,prefetch
554,wfe,wait
555,wfi,wait
